%YAML 1.1
%TAG !u! tag:unity3d.com,2011:
--- !u!1045 &1
EditorBuildSettings:
  m_ObjectHideFlags: 0
  serializedVersion: 2
  m_Scenes:
  - enabled: 1
    path: Assets/Scenes/MainMenu.unity
    guid: 6386e70873345ce48ac992016db78c0b
  - enabled: 1
    path: Assets/Scenes/Prologue.unity
    guid: 64cedd709f473874a879b6f431354b3f
  - enabled: 1
    path: Assets/Scenes/Stomach.unity
    guid: 41bcadf7d7685964db5bac2a5c5d4301
  - enabled: 1
    path: Assets/Scenes/Lungs.unity
    guid: 950de8611b0e28a4792edf72020fce3f
  - enabled: 1
    path: Assets/Scenes/AnotherPrototypeScene.unity
    guid: 0df9f474b276f40479fb27eebc811640
  - enabled: 1
    path: Assets/Scenes/PrototypeScene.unity
    guid: 7667f8ca28e187543a640c3e15e40321
  - enabled: 1
    path: Assets/Scenes/GameOver.unity
    guid: e63b515a258dabd4fb89e37af018ed4d
  - enabled: 1
    path: Assets/Scenes/YetAnother.unity
    guid: 3569c15f5cb913c41b65486c62a4c4bb
  - enabled: 1
    path: Assets/Scenes/VictoryScene.unity
    guid: e1f295444d8882242b3512a9037c5fd3
  - enabled: 1
    path: Assets/Scenes/BossLevel.unity
    guid: d2810862627a2ba4ab6219ca292c0d81
